…
``` r
# print parameter settings
biomee_gs_leuning_drivers$params_siml
#> [[1]]
#> # A tibble: 1 × 10
#>   spinupyears recycle firstyeartrend nyeartrend steps_per_day
#>         <dbl>   <dbl>          <dbl>      <dbl>         <dbl>
#> 1         250       1           2009          1            24
#> # ℹ 5 more variables: do_U_shaped_mortality <lgl>, do_closedN_run <lgl>,
#> #   method_photosynth <chr>, method_mortality <chr>, do_daily_diagnostics <lgl>

# print forcing
head(biomee_gs_leuning_drivers$forcing)
#> [[1]]
#> # A tibble: 8,760 × 9
#>    date         hod   temp      rain   vpd        ppfd   patm  wind   co2
#>    <date>     <dbl>  <dbl>     <dbl> <dbl>       <dbl>  <dbl> <dbl> <dbl>
#>  1 2009-01-01     0 0.728  0.0000184  54.4 0.000000319 93216.  3.56  388.
#>  2 2009-01-01     1 0.780  0.0000116  54.9 0.000000322 93189.  3.37  388.
#>  3 2009-01-01     2 0.519  0.0000116  42.9 0.000000330 93184.  3.01  388.
#>  4 2009-01-01     3 0.476  0.0000116  47.3 0.000000311 93166.  3.31  388.
#>  5 2009-01-01     4 0.336  0.0000140  44.3 0.000000322 93143.  3.23  388.
#>  6 2009-01-01     5 0.278  0.0000140  38.4 0.000000329 93124.  2.94  388.
#>  7 2009-01-01     6 0.0966 0.0000140  28.5 0.000000329 93114.  2.98  388.
#>  8 2009-01-01     7 0.172  0.0000211  28.4 0.000000335 93111.  3.46  388.
#>  9 2009-01-01     8 0.236  0.0000211  30.1 0.0000179   93118.  3.31  388.
#> 10 2009-01-01     9 0.152  0.0000211  24.1 0.0000789   93132.  3.27  388.
#> # ℹ 8,750 more rows
```
…
``` r
# print parameter settings
biomee_p_model_drivers$params_siml
#> [[1]]
#> # A tibble: 1 × 10
#>   spinupyears recycle firstyeartrend nyeartrend steps_per_day
#>         <dbl>   <dbl>          <dbl>      <dbl>         <dbl>
#> 1         250       1           2009          1             1
#> # ℹ 5 more variables: do_U_shaped_mortality <lgl>, do_closedN_run <lgl>,
#> #   method_photosynth <chr>, method_mortality <chr>, do_daily_diagnostics <lgl>

# print forcing for P-model
head(biomee_p_model_drivers$forcing)
#> [[1]]
#> # A tibble: 365 × 9
#>    date         hod    temp       rain   vpd      ppfd   patm  wind   co2
#>    <date>     <dbl>   <dbl>      <dbl> <dbl>     <dbl>  <dbl> <dbl> <dbl>
#>  1 2009-01-01  11.5  0.384  0.0000166   39.5 0.0000571 93092.  3.00  388.
#>  2 2009-01-02  11.5 -1.64   0.0000232   40.5 0.0000499 93248.  2.97  388.
#>  3 2009-01-03  11.5 -2.51   0.00000371  75.9 0.0000949 93684.  2.84  388.
#>  4 2009-01-04  11.5 -1.82   0.0000130   88.0 0.0000706 93435.  2.67  388.
#>  5 2009-01-05  11.5 -1.34   0.0000223   67.8 0.0000739 93175.  3.21  388.
#>  6 2009-01-06  11.5 -0.450  0.0000219   54.0 0.0000528 93282.  3.03  388.
#>  7 2009-01-07  11.5  0.266  0.0000136   64.1 0.0000711 93511.  2.64  388.
#>  8 2009-01-08  11.5  0.504  0.0000113   88.2 0.0000905 93443.  2.68  388.
#>  9 2009-01-09  11.5  0.0869 0.0000186   59.9 0.0000516 93447.  2.74  388.
#> 10 2009-01-10  11.5 -0.404  0.0000125   58.6 0.0000827 93633.  2.17  388.
#> # ℹ 355 more rows
```
…
