Prepare rsofun forcing data • rsofun
…
## nested data frame:
ddf_meteo

## # A tibble: 3 x 2
## # Groups:   sitename [3]
##   sitename           data                 
##   <chr>              <list>               
## 1 site_rsofun_demo_2 <tibble [2,190 × 12]>
## 2 site_rsofun_demo_1 <tibble [1,095 × 12]>
## 3 site_rsofun_demo_3 <tibble [1,095 × 12]>

## inside .$data:
ddf_meteo$data[[1]] %>% dplyr::select(-ccov_int)

## # A tibble: 2,190 x 11
##    myvar date          ppfd  rain    snow    prec    qair  temp   patm   vpd
##    <dbl> <date>       <dbl> <dbl>   <dbl>   <dbl>   <dbl> <dbl>  <dbl> <dbl>
##  1  49.5 2001-01-01 1.01e-4     0 0.      0.      2.02e-4 -31.5 82275. 16.9 
##  2  61.2 2001-01-02 1.25e-4     0 0.      0.      1.60e-4 -33.8 82626. 13.5 
##  3  42.3 2001-01-03 8.63e-5     0 0.      0.      2.58e-4 -29.9 82206. 16.6 
##  4  48.2 2001-01-04 9.84e-5     0 3.30e-6 3.30e-6 4.88e-4 -25.6 82013. 11.6 
##  5  25.5 2001-01-05 5.20e-5     0 3.33e-6 3.33e-6 6.38e-4 -23.1 81619. 11.0 
##  6  31.8 2001-01-06 6.49e-5     0 5.12e-7 5.12e-7 2.43e-4 -32.1 82037.  9.09
##  7  66.7 2001-01-07 1.36e-4     0 0.      0.      9.38e-5 -38.8 82810.  8.40
##  8  62.0 2001-01-08 1.26e-4     0 0.      0.      1.37e-4 -35.0 82545. 12.7 
##  9  42.3 2001-01-09 8.64e-5     0 0.      0.      2.98e-4 -27.9 81940. 21.9 
## 10  59.9 2001-01-10 1.22e-4     0 0.      0.      3.55e-4 -27.7 81973. 15.8 
## # … with 2,180 more rows, and 1 more variable: ccov <dbl>
…
## nested data frame:
df_modis_fpar

## # A tibble: 3 x 2
## # Groups:   sitename [3]
##   sitename           data                
##   <chr>              <list>              
## 1 site_rsofun_demo_1 <tibble [1,096 × 9]>
## 2 site_rsofun_demo_2 <tibble [2,191 × 9]>
## 3 site_rsofun_demo_3 <tibble [1,095 × 9]>

## inside .$data:
df_modis_fpar$data[[1]] %>% dplyr::select(date, fapar)

## # A tibble: 1,096 x 2
##    date       fapar
##    <date>     <dbl>
##  1 2003-01-01 0.111
##  2 2003-01-02 0.111
##  3 2003-01-03 0.111
##  4 2003-01-04 0.111
##  5 2003-01-05 0.111
##  6 2003-01-06 0.111
##  7 2003-01-07 0.111
##  8 2003-01-08 0.111
##  9 2003-01-09 0.111
## 10 2003-01-10 0.111
## # … with 1,086 more rows
…
## nested data frame:
df_co2

## # A tibble: 3 x 2
## # Groups:   sitename [3]
##   sitename           data                
##   <chr>              <list>              
## 1 site_rsofun_demo_1 <tibble [1,096 × 2]>
## 2 site_rsofun_demo_2 <tibble [2,191 × 2]>
## 3 site_rsofun_demo_3 <tibble [1,095 × 2]>

## inside .$data:
df_co2$data[[1]] %>% dplyr::select(date, co2)

## # A tibble: 1,096 x 2
##    date         co2
##    <date>     <dbl>
##  1 2003-01-01  376.
##  2 2003-01-02  376.
##  3 2003-01-03  376.
##  4 2003-01-04  376.
##  5 2003-01-05  376.
##  6 2003-01-06  376.
##  7 2003-01-07  376.
##  8 2003-01-08  376.
##  9 2003-01-09  376.
## 10 2003-01-10  376.
## # … with 1,086 more rows
…
## Warning: Problem with `mutate()` input `data`.
## ℹ the condition has length > 1 and only the first element will be used
## ℹ Input `data` is `purrr::pmap(...)`.

## Warning: Problem with `mutate()` input `data`.
## ℹ the condition has length > 1 and only the first element will be used
## ℹ Input `data` is `purrr::pmap(...)`.

Network site ensemble

In this case, sites are not identified by their longitude and latitude, but by site names, that follow a standard, given by the site network. Preparing forcing data, calibrating, and evaluating rsofun is made particularly easy for FLUXNET simulations. Site meta information for FLUXNET is provided through the ingestr package:

siteinfo_fluxnet2015

## # A tibble: 166 x 12
##    sitename   lon   lat   elv year_start year_end classid c4      whc
##    <chr>    <dbl> <dbl> <dbl> <chr>      <chr>    <chr>   <lgl> <dbl>
##  1 AR-SLu   -66.5 -33.5   499 2009       2011     MF      FALSE  268.
##  2 AR-Vir   -56.2 -28.2    97 2009       2012     ENF     FALSE  302.
##  3 AT-Neu    11.3  47.1   970 2002       2012     GRA     FALSE  270.
##  4 AU-Ade   131.  -13.1    81 2007       2009     WSA     FALSE  269.
##  5 AU-ASM   133.  -22.3   606 2010       2013     ENF     FALSE  215.
##  6 AU-Cpr   141.  -34.0    57 2010       2014     SAV     FALSE  217.
##  7 AU-Cum   151.  -33.6    28 2012       2014     EBF     FALSE  311.
##  8 AU-DaP   131.  -14.1   102 2007       2013     GRA     FALSE  295.
##  9 AU-DaS   131.  -14.2    98 2008       2014     SAV     FALSE  249.
## 10 AU-Dry   132.  -15.3   172 2008       2014     SAV     FALSE  239.
## # … with 156 more rows, and 3 more variables: koeppen_code <chr>,
## #   igbp_land_use <chr>, plant_functional_type <chr>
…
## nested data frame:
ddf_meteo

## # A tibble: 3 x 2
## # Groups:   sitename [3]
##   sitename data                
##   <chr>    <list>              
## 1 AR-SLu   <tibble [1,095 × 8]>
## 2 AR-Vir   <tibble [1,460 × 8]>
## 3 AT-Neu   <tibble [4,015 × 8]>

## inside .$data:
ddf_meteo$data[[1]]

## # A tibble: 1,095 x 8
##    date        temp  prec   vpd     ppfd  patm ccov_int  ccov
##    <date>     <dbl> <dbl> <dbl>    <dbl> <dbl>    <dbl> <dbl>
##  1 2009-01-01  21.8 3.07   665. 0.000162 95295     35.9  35.9
##  2 2009-01-02  22.4 0.693 1062. 0.000520 95597     35.4  35.4
##  3 2009-01-03  25.9 0     1830. 0.000699 95651     35.0  35.0
##  4 2009-01-04  29.4 0     2620. 0.000838 95272     34.5  34.5
##  5 2009-01-05  28.8 0.985 2303. 0.000625 94956     34.0  34.0
##  6 2009-01-06  25.1 6.06   979. 0.000534 94897     33.6  33.6
##  7 2009-01-07  25.9 0     1846. 0.000474 95259     33.1  33.1
##  8 2009-01-08  26.9 0.043 2021. 0.000698 95579     32.7  32.7
##  9 2009-01-09  29.9 0     2862. 0.000791 95697     32.3  32.3
## 10 2009-01-10  31.8 0     3343. 0.000808 95500     31.8  31.8
## # … with 1,085 more rows
…
## nested data frame:
df_modis_fpar

## # A tibble: 3 x 2
## # Groups:   sitename [3]
##   sitename data                
##   <chr>    <list>              
## 1 AR-SLu   <tibble [1,095 × 9]>
## 2 AR-Vir   <tibble [1,461 × 9]>
## 3 AT-Neu   <tibble [4,018 × 9]>

## inside .$data:
df_modis_fpar$data[[1]] %>% dplyr::select(date, fapar)

## # A tibble: 1,095 x 2
##    date       fapar
##    <date>     <dbl>
##  1 2009-01-01 0.548
##  2 2009-01-02 0.543
##  3 2009-01-03 0.538
##  4 2009-01-04 0.533
##  5 2009-01-05 0.529
##  6 2009-01-06 0.524
##  7 2009-01-07 0.519
##  8 2009-01-08 0.515
##  9 2009-01-09 0.510
## 10 2009-01-10 0.506
## # … with 1,085 more rows
…
## nested data frame:
df_co2

## # A tibble: 3 x 2
## # Groups:   sitename [3]
##   sitename data                
##   <chr>    <list>              
## 1 AR-SLu   <tibble [1,095 × 2]>
## 2 AR-Vir   <tibble [1,461 × 2]>
## 3 AT-Neu   <tibble [4,018 × 2]>

## inside .$data:
df_co2$data[[1]] %>% dplyr::select(date, co2)

## # A tibble: 1,095 x 2
##    date         co2
##    <date>     <dbl>
##  1 2009-01-01  387.
##  2 2009-01-02  387.
##  3 2009-01-03  387.
##  4 2009-01-04  387.
##  5 2009-01-05  387.
##  6 2009-01-06  387.
##  7 2009-01-07  387.
##  8 2009-01-08  387.
##  9 2009-01-09  387.
## 10 2009-01-10  387.
## # … with 1,085 more rows
…
