BiomeE usage • rsofun
…
# print parameter settings
biomee_gs_leuning_drivers$params_siml
#> [[1]]
#> # A tibble: 1 × 12
#>   spinup spinupyears recycle firstyeartrend nyeartrend outputhourly outputdaily
#>   <lgl>        <dbl>   <dbl>          <dbl>      <dbl> <lgl>        <lgl>      
#> 1 TRUE           250       1           2009          1 TRUE         TRUE       
#> # ℹ 5 more variables: do_U_shaped_mortality <lgl>, update_annualLAImax <lgl>,
#> #   do_closedN_run <lgl>, method_photosynth <chr>, method_mortality <chr>

# print forcing
head(biomee_gs_leuning_drivers$forcing)
#> [[1]]
#> # A tibble: 8,760 × 18
#>    date        year   doy  hour   temp temp_soil      prec snow  vpd      rh
#>    <date>     <dbl> <dbl> <dbl>  <dbl>     <dbl>     <dbl> <lgl> <lgl> <dbl>
#>  1 2009-01-01  2009     1     0 0.728       3.16 0.0000184 NA    NA     91.6
#>  2 2009-01-01  2009     1     1 0.780       3.20 0.0000116 NA    NA     91.5
#>  3 2009-01-01  2009     1     2 0.519       3.23 0.0000116 NA    NA     93.2
#>  4 2009-01-01  2009     1     3 0.476       3.28 0.0000116 NA    NA     92.5
#>  5 2009-01-01  2009     1     4 0.336       3.30 0.0000140 NA    NA     92.9
#>  6 2009-01-01  2009     1     5 0.278       3.30 0.0000140 NA    NA     93.8
#>  7 2009-01-01  2009     1     6 0.0966      3.28 0.0000140 NA    NA     95.4
#>  8 2009-01-01  2009     1     7 0.172       3.30 0.0000211 NA    NA     95.4
#>  9 2009-01-01  2009     1     8 0.236       3.33 0.0000211 NA    NA     95.2
#> 10 2009-01-01  2009     1     9 0.152       3.41 0.0000211 NA    NA     96.1
#> # ℹ 8,750 more rows
#> # ℹ 8 more variables: ppfd <dbl>, par <dbl>, patm <dbl>, wind <dbl>,
#> #   ccov_int <lgl>, ccov <lgl>, co2 <dbl>, swc <dbl>
…
# print parameter settings
biomee_p_model_drivers$params_siml
#> [[1]]
#> # A tibble: 1 × 12
#>   spinup spinupyears recycle firstyeartrend nyeartrend outputhourly outputdaily
#>   <lgl>        <dbl>   <dbl>          <dbl>      <dbl> <lgl>        <lgl>      
#> 1 TRUE           250       1           2009          1 TRUE         TRUE       
#> # ℹ 5 more variables: do_U_shaped_mortality <lgl>, update_annualLAImax <lgl>,
#> #   do_closedN_run <lgl>, method_photosynth <chr>, method_mortality <chr>

# print forcing for P-model
head(biomee_p_model_drivers$forcing)
#> [[1]]
#> # A tibble: 365 × 18
#>    date        year   doy  hour    temp temp_soil       prec snow  vpd      rh
#>    <date>     <dbl> <dbl> <dbl>   <dbl>     <dbl>      <dbl> <lgl> <lgl> <dbl>
#>  1 2009-01-01  2009     1  11.5  0.384       3.39 0.0000166  NA    NA     93.7
#>  2 2009-01-02  2009     2  11.5 -1.64        2.55 0.0000232  NA    NA     92.5
#>  3 2009-01-03  2009     3  11.5 -2.51        1.95 0.00000371 NA    NA     85.1
#>  4 2009-01-04  2009     4  11.5 -1.82        2.20 0.0000130  NA    NA     83.5
#>  5 2009-01-05  2009     5  11.5 -1.34        2.23 0.0000223  NA    NA     87.8
#>  6 2009-01-06  2009     6  11.5 -0.450       2.75 0.0000219  NA    NA     90.9
#>  7 2009-01-07  2009     7  11.5  0.266       3.50 0.0000136  NA    NA     89.7
#>  8 2009-01-08  2009     8  11.5  0.504       3.52 0.0000113  NA    NA     86.1
#>  9 2009-01-09  2009     9  11.5  0.0869      3.49 0.0000186  NA    NA     90.3
#> 10 2009-01-10  2009    10  11.5 -0.404       3.44 0.0000125  NA    NA     90.1
#> # ℹ 355 more rows
#> # ℹ 8 more variables: ppfd <dbl>, par <dbl>, patm <dbl>, wind <dbl>,
#> #   ccov_int <lgl>, ccov <lgl>, co2 <dbl>, swc <dbl>
…
