Data format • rsofun
…
The forcing data contains environmental variables commonly available
at fluxnet (reference) or ICOS atmospheric gas exchange measurement
locations or gathered from various gridded or re-analysis sources.
Forcing data are expected to be sequences of complete years (each
starting on January 1st and ending on december 31st), where leap days
are excluded (February 29th should not be present).

Each model has a specific forcing data resolution: - P-model: daily -
BiomeE (p-model): daily - BiomeE (gs leuning): hourly

Forcing data present in the demo drivers can be used as examples:

# Detailed look at the forcing data for the P-model
rsofun::pmodel_drivers$forcing[[1]]
#> # A tibble: 730 × 14
#>    date         temp   vpd      ppfd   netrad   patm  snow     rain  tmin   tmax
#>    <date>      <dbl> <dbl>     <dbl>    <dbl>  <dbl> <dbl>    <dbl> <dbl>  <dbl>
#>  1 2007-01-01  2.87  234.  0.0000426 -28.0    83996.     0  2.20e-5 -4.07  5.90 
#>  2 2007-01-02 -4.67  110.  0.0000621  -0.394  83554.     0  6.71e-5 -5.47 -2.87 
#>  3 2007-01-03 -3.67  101.  0.0000980  -7.05   84263.     0  1.16e-5 -7.17 -3.20 
#>  4 2007-01-04  0.463  45.1 0.0000724  -0.0927 83582.     0  3.01e-5 -4.83  1.90 
#>  5 2007-01-05 -1.30   95.3 0.000155   23.4    83925.     0  2.31e-6 -2.37 -0.400
#>  6 2007-01-06  0.982 149.  0.000150  -21.3    84087.     0  0       -3.50  3.60 
#>  7 2007-01-07  2.01  149.  0.000152  -15.4    83814.     0  0       -1.60  4.37 
#>  8 2007-01-08  2.05  270.  0.000122  -26.7    83343.     0  0       -2.40  3.93 
#>  9 2007-01-09  2.21   20.9 0.0000622   6.76   83866.     0  9.95e-5 -1.53  4.10 
#> 10 2007-01-10  6.19  237.  0.000157  -37.7    84036.     0  0        1.13  8.53 
#> # ℹ 720 more rows
#> # ℹ 4 more variables: wind <dbl>, fapar <dbl>, co2 <dbl>, ccov <dbl>
…
