Parameter calibration (P-Model) to multiple targets (GPP, bigD13C) • rsofun
…
#>  8 US-PFa                  gpp       NA        <tibble [669 × 7]>  
#>  9 lon_+010.52_lat_+051.08 bigD13C   NA        <tibble [8 × 2]>    
#> 10 lon_+011.10_lat_+048.30 bigD13C   NA        <tibble [1 × 2]>    
#> 11 lon_+112.58_lat_+023.13 bigD13C   NA        <tibble [94 × 2]>   
#> 12 lon_+145.13_lat_-005.83 bigD13C   NA        <tibble [1 × 2]>    
#> 13 lon_+146.13_lat_-032.97 bigD13C   NA        <tibble [19 × 2]>   
#> 14 lon_+148.30_lat_-036.10 bigD13C   NA        <tibble [2 × 2]>    
#> 15 lon_+153.00_lat_-026.85 bigD13C   NA        <tibble [25 × 2]>   
#> 16 lon_-079.10_lat_+035.97 bigD13C   NA        <tibble [4 × 2]>    
#> 17 lon_-116.45_lat_+047.16 bigD13C   NA        <tibble [18 × 2]>   
#> 18 lon_-119.82_lat_+034.50 bigD13C   NA        <tibble [13 × 2]>   
#> 19 lon_-122.98_lat_+038.40 bigD13C   NA        <tibble [1 × 2]>    
#> 20 lon_-149.61_lat_+063.97 bigD13C   NA        <tibble [1 × 2]>
pmodel_validation |> dplyr::filter(grepl("lon", sitename)) |>  tidyr::unnest(data)
#> # A tibble: 187 × 4
#>    sitename                targets   id                       bigD13C
#>    <chr>                   <list>    <chr>                      <dbl>
#>  1 lon_+010.52_lat_+051.08 <chr [1]> 2001_Acer platanoides       19.4
#>  2 lon_+010.52_lat_+051.08 <chr [1]> 2001_Acer pseudoplatanus    19.7
#>  3 lon_+010.52_lat_+051.08 <chr [1]> 2001_Carpinus betulus       19.4
#>  4 lon_+010.52_lat_+051.08 <chr [1]> 2001_Fagus engleriana       19.5
#>  5 lon_+010.52_lat_+051.08 <chr [1]> 2001_Fraxinus excelsior     18.0
#>  6 lon_+010.52_lat_+051.08 <chr [1]> 2001_Quercus x mannifera    20.0
#>  7 lon_+010.52_lat_+051.08 <chr [1]> 2001_Tilia cordata          19.4
#>  8 lon_+010.52_lat_+051.08 <chr [1]> 2001_Tilia x europaea       18.2
#>  9 lon_+011.10_lat_+048.30 <chr [1]> 2002_Fagus engleriana       22.2
#> 10 lon_+112.58_lat_+023.13 <chr [1]> 1985_Adenosma glutinosa     22.8
#> # ℹ 177 more rows
pmodel_validation |> dplyr::filter(grepl("^[A-Z]", sitename)) |> tidyr::unnest(data)
#> # A tibble: 6,031 × 9
#>    sitename targets   date          gpp gpp_qc   nee nee_qc    le le_qc
#>    <chr>    <list>    <date>      <dbl>  <dbl> <dbl>  <dbl> <dbl> <dbl>
#>  1 CH-Dav   <chr [2]> 2007-01-01  0.855  1     1.44   1      9.49     1
#>  2 CH-Dav   <chr [2]> 2007-01-02 -0.943  1     2.62   1     65.0      1
#>  3 CH-Dav   <chr [2]> 2007-01-03 -0.951  1     2.39   1     48.6      1
#>  4 CH-Dav   <chr [2]> 2007-01-04  1.23   0.979 0.958  0.979 14.7      1
#>  5 CH-Dav   <chr [2]> 2007-01-05  1.36   1     0.992  1     37.5      1
#>  6 CH-Dav   <chr [2]> 2007-01-06  1.67   1     1.02   1     31.4      1
#>  7 CH-Dav   <chr [2]> 2007-01-07  2.27   0.979 0.575  0.979 16.9      1
#>  8 CH-Dav   <chr [2]> 2007-01-08  2.00   1     0.854  1     21.5      1
#>  9 CH-Dav   <chr [2]> 2007-01-09  1.20   0.979 1.53   0.979 24.6      1
#> 10 CH-Dav   <chr [2]> 2007-01-10  0.732  0.958 1.72   0.958 28.3      1
#> # ℹ 6,021 more rows
…
#>    <chr>                  <list>      <list>    <dbl> <dbl>   <dbl> <dbl>  <dbl>
#>  1 lon_+010.52_lat_+051.… <tibble>    <tibble>   11.6  363. 2.61e-4  370. 9.75e4
#>  2 lon_+011.10_lat_+048.… <tibble>    <tibble>   12.4  399. 2.99e-4  370. 9.53e4
#>  3 lon_+112.58_lat_+023.… <tibble>    <tibble>   23.7  666. 3.27e-4  370. 9.92e4
#>  4 lon_+145.13_lat_-005.… <tibble>    <tibble>   16.0  382. 3.46e-4  370. 7.29e4
#>  5 lon_+146.13_lat_-032.… <tibble>    <tibble>   21.5 1231. 4.27e-4  370. 9.94e4
#>  6 lon_+148.30_lat_-036.… <tibble>    <tibble>   10.7  384. 3.82e-4  370. 8.60e4
#>  7 lon_+153.00_lat_-026.… <tibble>    <tibble>   23.6  813. 4.28e-4  370. 1.01e5
#>  8 lon_-079.10_lat_+035.… <tibble>    <tibble>   19.0  762. 3.58e-4  370. 9.94e4
#>  9 lon_-116.45_lat_+047.… <tibble>    <tibble>   14.3  696. 3.85e-4  370. 9.16e4
#> 10 lon_-119.82_lat_+034.… <tibble>    <tibble>   18.3  818. 4.23e-4  370. 9.43e4
#> 11 lon_-122.98_lat_+038.… <tibble>    <tibble>   17.1  651. 3.84e-4  370. 9.81e4
#> 12 lon_-149.61_lat_+063.… <tibble>    <tibble>   10.9  495. 3.24e-4  370. 9.27e4
pmodel_drivers |> dplyr::filter(grepl("^[A-Z]", sitename)) |> tidyr::unnest(forcing)
#> # A tibble: 7,300 × 17
#>    sitename params_siml       site_info date         temp   vpd    ppfd   netrad
#>    <chr>    <list>            <list>    <date>      <dbl> <dbl>   <dbl>    <dbl>
#>  1 CH-Dav   <tibble [1 × 12]> <tibble>  2007-01-01  2.87  234.  4.26e-5 -28.0   
#>  2 CH-Dav   <tibble [1 × 12]> <tibble>  2007-01-02 -4.67  110.  6.21e-5  -0.394 
#>  3 CH-Dav   <tibble [1 × 12]> <tibble>  2007-01-03 -3.67  101.  9.80e-5  -7.05  
#>  4 CH-Dav   <tibble [1 × 12]> <tibble>  2007-01-04  0.463  45.1 7.24e-5  -0.0927
#>  5 CH-Dav   <tibble [1 × 12]> <tibble>  2007-01-05 -1.30   95.3 1.55e-4  23.4   
#>  6 CH-Dav   <tibble [1 × 12]> <tibble>  2007-01-06  0.982 149.  1.50e-4 -21.3   
#>  7 CH-Dav   <tibble [1 × 12]> <tibble>  2007-01-07  2.01  149.  1.52e-4 -15.4   
#>  8 CH-Dav   <tibble [1 × 12]> <tibble>  2007-01-08  2.05  270.  1.22e-4 -26.7   
#>  9 CH-Dav   <tibble [1 × 12]> <tibble>  2007-01-09  2.21   20.9 6.22e-5   6.76  
#> 10 CH-Dav   <tibble [1 × 12]> <tibble>  2007-01-10  6.19  237.  1.57e-4 -37.7   
#> # ℹ 7,290 more rows
#> # ℹ 9 more variables: patm <dbl>, snow <dbl>, rain <dbl>, tmin <dbl>,
#> #   tmax <dbl>, wind <dbl>, fapar <dbl>, co2 <dbl>, ccov <dbl>
…
